module tugas16

go 1.17

require (
	github.com/gin-contrib/sse v0.1.0 // indirect
	github.com/gin-gonic/gin v1.8.1 // indirect
	github.com/go-gorp/gorp/v3 v3.1.0 // indirect
	github.com/go-playground/locales v0.14.0 // indirect
	github.com/go-playground/universal-translator v0.18.0 // indirect
	github.com/go-playground/validator/v10 v10.11.1 // indirect
	github.com/gobuffalo/logger v1.0.7 // indirect
	github.com/gobuffalo/packd v1.0.2 // indirect
	github.com/gobuffalo/packr/v2 v2.8.3 // indirect
	github.com/goccy/go-json v0.10.0 // indirect
	github.com/joho/godotenv v1.4.0 // indirect
	github.com/json-iterator/go v1.1.12 // indirect
	github.com/karrick/godirwalk v1.17.0 // indirect
	github.com/leodido/go-urn v1.2.1 // indirect
	github.com/lib/pq v1.10.7 // indirect
	github.com/markbates/errx v1.1.0 // indirect
	github.com/markbates/oncer v1.0.0 // indirect
	github.com/markbates/safe v1.0.1 // indirect
	github.com/mattn/go-isatty v0.0.16 // indirect
	github.com/modern-go/concurrent v0.0.0-20180306012644-bacd9c7ef1dd // indirect
	github.com/modern-go/reflect2 v1.0.2 // indirect
	github.com/pelletier/go-toml/v2 v2.0.6 // indirect
	github.com/rubenv/sql-migrate v1.2.0 // indirect
	github.com/sirupsen/logrus v1.9.0 // indirect
	github.com/ugorji/go/codec v1.2.7 // indirect
	golang.org/x/crypto v0.4.0 // indirect
	golang.org/x/net v0.4.0 // indirect
	golang.org/x/sys v0.3.0 // indirect
	golang.org/x/term v0.3.0 // indirect
	golang.org/x/text v0.5.0 // indirect
	google.golang.org/protobuf v1.28.1 // indirect
	gopkg.in/yaml.v2 v2.4.0 // indirect
)
